uslides HTML presentation
…
Slide with quote

Learning more about programming is a long-term investment: it won’t pay off immediately, but in the long term it will allow you to solve new problems more quickly, and let you reuse your insights from previous problems in new scenarios.

Hadley Wickham? 

Slide with R Code and Output

Some text

hw <- rtweet::search_tweets("rstats")
## Searching for tweets...
## Finished collecting tweets!
hw
## # A tibble: 100 x 68
##    status_id  created_at          user_id  screen_name text         source
##    <chr>      <dttm>              <chr>    <chr>       <chr>        <chr> 
##  1 957706499… 2018-01-28 20:06:37 2840658… ZKamvar     RT @BrodieG… Tweet…
##  2 957706029… 2018-01-28 20:04:45 16019456 Benjaming_G "RT @Nichol… Twitt…
##  3 957705652… 2018-01-28 20:03:15 3860827… commongorse RT @robinso… Twitt…
##  4 957705505… 2018-01-28 20:02:40 3792040… Cruz_Julia… Rbloggers S… Botize
##  5 957705376… 2018-01-28 20:02:09 2335858… CRANberrie… CRAN update… CRANb…
##  6 957705195… 2018-01-28 20:01:26 5978680… robinson_es "RT @Nichol… Twitt…
##  7 957704857… 2018-01-28 20:00:06 9477522… rstatsbot1… RT @SonjaEi… Rstat…
##  8 957704851… 2018-01-28 20:00:04 9477522… rstatsbot1… "RT @daniel… Rstat…
##  9 957704850… 2018-01-28 20:00:04 9477522… rstatsbot1… RT @Nichola… Rstat…
## 10 957704844… 2018-01-28 20:00:02 9477522… rstatsbot1… RT @BrodieG… Rstat…
##    display_text_width reply_to_status_id
##                 <dbl> <chr>             
##  1              140   <NA>              
##  2              139   <NA>              
##  3              130   <NA>              
##  4               98.0 <NA>              
##  5               52.0 <NA>              
##  6              139   <NA>              
##  7               78.0 <NA>              
##  8              140   <NA>              
##  9              140   <NA>              
## 10              140   <NA>              
## # ... with 90 more rows, and 60 more variables: reply_to_user_id <chr>,
## #   reply_to_screen_name <chr>, is_quote <lgl>, is_retweet <lgl>,
## #   favorite_count <int>, retweet_count <int>, hashtags <list>,
## #   symbols <list>, urls_url <list>, urls_t.co <list>,
## #   urls_expanded_url <list>, media_url <list>, media_t.co <list>,
## #   media_expanded_url <list>, media_type <list>, ext_media_url <list>,
## #   ext_media_t.co <list>, ext_media_expanded_url <list>,
## #   ext_media_type <chr>, mentions_user_id <list>,
## #   mentions_screen_name <list>, lang <chr>, quoted_status_id <chr>,
…
